Analizando datos, visualizando información, contando historias
…
Los **datos en formato tibble** (del paquete `{tibble}`) son un tipo de `data.frame` mejorado, para una **gestión más ágil, eficiente y coherente**. Las tablas en formato `tibble` tienen **4 ventajas principales**:

* Imprime **mayor información de las variables**, y solo **imprime por defecto las primeras filas**.

```r
library(tibble)
# tibble
tabla_tb <- tibble("x" = 1:30, "y" = rep(c("a", "b", "c"), 10),
                   "z" = 31:60, "logica" = rep(c(TRUE, TRUE, FALSE), 10))
tabla_tb
```

```
> # A tibble: 30 × 4
>        x y         z logica
>    <int> <chr> <int> <lgl> 
>  1     1 a        31 TRUE  
>  2     2 b        32 TRUE  
>  3     3 c        33 FALSE 
>  4     4 a        34 TRUE  
>  5     5 b        35 TRUE  
>  6     6 c        36 FALSE 
>  7     7 a        37 TRUE  
>  8     8 b        38 TRUE  
>  9     9 c        39 FALSE 
> 10    10 a        40 TRUE  
> # … with 20 more rows
```
…
```
> [1] "data.frame"
```
]

.panel[.panel-name[Solución Ej. 2]

```r
as_tibble(airquality)
```

```
> # A tibble: 153 × 6
>    Ozone Solar.R  Wind  Temp Month   Day
>    <int>   <int> <dbl> <int> <int> <int>
>  1    41     190   7.4    67     5     1
>  2    36     118   8      72     5     2
>  3    12     149  12.6    74     5     3
>  4    18     313  11.5    62     5     4
>  5    NA      NA  14.3    56     5     5
>  6    28      NA  14.9    66     5     6
>  7    23     299   8.6    65     5     7
>  8    19      99  13.8    59     5     8
>  9     8      19  20.1    61     5     9
> 10    NA     194   8.6    69     5    10
> # … with 143 more rows
```
…
```
> [1] 11 12 13 14 15 16 17
```

]

.panel[.panel-name[5a]

```r
dplyr::starwars
```

```
> # A tibble: 87 × 14
>    name    height  mass hair_color  skin_color eye_color birth_year sex   gender
>    <chr>    <int> <dbl> <chr>       <chr>      <chr>          <dbl> <chr> <chr> 
>  1 Luke S…    172    77 blond       fair       blue            19   male  mascu…
>  2 C-3PO      167    75 <NA>        gold       yellow         112   none  mascu…
>  3 R2-D2       96    32 <NA>        white, bl… red             33   none  mascu…
>  4 Darth …    202   136 none        white      yellow          41.9 male  mascu…
>  5 Leia O…    150    49 brown       light      brown           19   fema… femin…
>  6 Owen L…    178   120 brown, grey light      blue            52   male  mascu…
>  7 Beru W…    165    75 brown       light      blue            47   fema… femin…
>  8 R5-D4       97    32 <NA>        white, red red             NA   none  mascu…
>  9 Biggs …    183    84 black       light      brown           24   male  mascu…
> 10 Obi-Wa…    182    77 auburn, wh… fair       blue-gray       57   male  mascu…
> # … with 77 more rows, and 5 more variables: homeworld <chr>, species <chr>,
> #   films <list>, vehicles <list>, starships <list>
```
…
```
> [1] 87 14
```

]

.panel[.panel-name[5b]

```r
library(gapminder)
gapminder
```

```
> # A tibble: 1,704 × 6
>    country     continent  year lifeExp      pop gdpPercap
>    <fct>       <fct>     <int>   <dbl>    <int>     <dbl>
>  1 Afghanistan Asia       1952    28.8  8425333      779.
>  2 Afghanistan Asia       1957    30.3  9240934      821.
>  3 Afghanistan Asia       1962    32.0 10267083      853.
>  4 Afghanistan Asia       1967    34.0 11537966      836.
>  5 Afghanistan Asia       1972    36.1 13079460      740.
>  6 Afghanistan Asia       1977    38.4 14880372      786.
>  7 Afghanistan Asia       1982    39.9 12881816      978.
>  8 Afghanistan Asia       1987    40.8 13867957      852.
>  9 Afghanistan Asia       1992    41.7 16317921      649.
> 10 Afghanistan Asia       1997    41.8 22227415      635.
> # … with 1,694 more rows
```
…
Salvo la primera, el **resto de columnas tienen como nombre los valores de una variable en sí misma (ingresos)**. Ahora en lugar de indicarle el nombre de todas vamos a indicarle **la columna que NO queremos pivotar**.

```r
# No necesitamos comillas en el nombre salvo que tengan caracteres que no sean letras
*relig_income %>% pivot_longer(-religion, names_to = "ingresos", values_to = "frec")
```

```
> # A tibble: 180 × 3
>    religion ingresos            frec
>    <chr>    <chr>              <dbl>
>  1 Agnostic <$10k                 27
>  2 Agnostic $10-20k               34
>  3 Agnostic $20-30k               60
>  4 Agnostic $30-40k               81
>  5 Agnostic $40-50k               76
>  6 Agnostic $50-75k              137
>  7 Agnostic $75-100k             122
>  8 Agnostic $100-150k            109
>  9 Agnostic >150k                 84
> 10 Agnostic Don't know/refused    96
> # … with 170 more rows
```
…
<div class="figure" style="text-align: left">
<img src="https://rstudio-education.github.io/bootcamper/slides/02-visualize-data/img/luke-skywalker.png" alt="Imagen extraída de https://rstudio-education.github.io/" width="90%" />
<p class="caption">Imagen extraída de https://rstudio-education.github.io/</p>
</div>
]

.pull-right[

```r
starwars
```

```
> # A tibble: 87 × 14
>    name    height  mass hair_color  skin_color eye_color birth_year sex   gender
>    <chr>    <int> <dbl> <chr>       <chr>      <chr>          <dbl> <chr> <chr> 
>  1 Luke S…    172    77 blond       fair       blue            19   male  mascu…
>  2 C-3PO      167    75 <NA>        gold       yellow         112   none  mascu…
>  3 R2-D2       96    32 <NA>        white, bl… red             33   none  mascu…
>  4 Darth …    202   136 none        white      yellow          41.9 male  mascu…
>  5 Leia O…    150    49 brown       light      brown           19   fema… femin…
>  6 Owen L…    178   120 brown, grey light      blue            52   male  mascu…
>  7 Beru W…    165    75 brown       light      blue            47   fema… femin…
>  8 R5-D4       97    32 <NA>        white, red red             NA   none  mascu…
>  9 Biggs …    183    84 black       light      brown           24   male  mascu…
> 10 Obi-Wa…    182    77 auburn, wh… fair       blue-gray       57   male  mascu…
> # … with 77 more rows, and 5 more variables: homeworld <chr>, species <chr>,
> #   films <list>, vehicles <list>, starships <list>
```
…
```
> [1] 87 14
```

---

# Intro a tidyverse: conjunto starwars

```r
print(starwars, n = 3, width = Inf)
```

```
> # A tibble: 87 × 14
>   name           height  mass hair_color skin_color  eye_color birth_year sex  
>   <chr>           <int> <dbl> <chr>      <chr>       <chr>          <dbl> <chr>
> 1 Luke Skywalker    172    77 blond      fair        blue              19 male 
> 2 C-3PO             167    75 <NA>       gold        yellow           112 none 
> 3 R2-D2              96    32 <NA>       white, blue red               33 none 
>   gender    homeworld species films     vehicles  starships
>   <chr>     <chr>     <chr>   <list>    <list>    <list>   
> 1 masculine Tatooine  Human   <chr [5]> <chr [2]> <chr [2]>
> 2 masculine Tatooine  Droid   <chr [6]> <chr [0]> <chr [0]>
> 3 masculine Naboo     Droid   <chr [7]> <chr [0]> <chr [0]>
> # … with 84 more rows
```
…
# Operaciones con filas: seleccionar

Una de las **operaciones más comunes** es **filtrar registros**: de todos los individuos de nuestro conjunto de datos, seleccionaremos parte de ellos. Para hacerlo tenemos principalmente **tres opciones**:

* **Seleccionar en base a algún filtro lógico**: con `filter()`, se seleccionarán solo individuos que cumplan ciertas condiciones (por ejemplo, solo los mayores de tal edad). Dentro de `filter()` se incluirán las condiciones lógicas a cumplir.

Por ejemplo, vamos a **filtrar solo aquellos personajes con ojos marrones**, es decir, con la condición `eye_color == "brown"`.

```r
*starwars %>% filter(eye_color == "brown")
```

```
> # A tibble: 21 × 14
>    name     height  mass hair_color skin_color eye_color birth_year sex   gender
>    <chr>     <int> <dbl> <chr>      <chr>      <chr>          <dbl> <chr> <chr> 
>  1 Leia Or…    150  49   brown      light      brown           19   fema… femin…
>  2 Biggs D…    183  84   black      light      brown           24   male  mascu…
>  3 Han Solo    180  80   brown      fair       brown           29   male  mascu…
>  4 Yoda         66  17   white      green      brown          896   male  mascu…
>  5 Boba Fe…    183  78.2 black      fair       brown           31.5 male  mascu…
>  6 Lando C…    177  79   black      dark       brown           31   male  mascu…
>  7 Arvel C…     NA  NA   brown      fair       brown           NA   male  mascu…
>  8 Wicket …     88  20   brown      brown      brown            8   male  mascu…
>  9 Quarsh …    183  NA   black      dark       brown           62   <NA>  <NA>  
> 10 Shmi Sk…    163  NA   black      fair       brown           72   fema… femin…
> # … with 11 more rows, and 5 more variables: homeworld <chr>, species <chr>,
> #   films <list>, vehicles <list>, starships <list>
```

---

# Operaciones con filas: filter()

Con `%>% filter()`, en **tan solo una línea**, hemos hecho más de lo que parece: `R` ha «recorrido» (algo similar a un bucle) cada una de las filas y ha ido comprobando que filas cumplen la condición y cuales no.

El operador de comparación `==` puede ser **cambiado por `!=`** (seleccionamos los que **NO TIENEN ojos marrones**).

```r
starwars %>% filter(eye_color != "brown")
```

```
> # A tibble: 66 × 14
>    name    height  mass hair_color  skin_color eye_color birth_year sex   gender
>    <chr>    <int> <dbl> <chr>       <chr>      <chr>          <dbl> <chr> <chr> 
>  1 Luke S…    172    77 blond       fair       blue            19   male  mascu…
>  2 C-3PO      167    75 <NA>        gold       yellow         112   none  mascu…
>  3 R2-D2       96    32 <NA>        white, bl… red             33   none  mascu…
>  4 Darth …    202   136 none        white      yellow          41.9 male  mascu…
>  5 Owen L…    178   120 brown, grey light      blue            52   male  mascu…
>  6 Beru W…    165    75 brown       light      blue            47   fema… femin…
>  7 R5-D4       97    32 <NA>        white, red red             NA   none  mascu…
>  8 Obi-Wa…    182    77 auburn, wh… fair       blue-gray       57   male  mascu…
>  9 Anakin…    188    84 blond       fair       blue            41.9 male  mascu…
> 10 Wilhuf…    180    NA auburn, gr… fair       blue            64   male  mascu…
> # … with 56 more rows, and 5 more variables: homeworld <chr>, species <chr>,
> #   films <list>, vehicles <list>, starships <list>
```

---

# Operaciones con filas: filter()

También se pueden **seleccionar los personajes** que tienen los **ojos de una serie de colores** permitidos: con `%in%` le indicaremos que seleccione solo aquellas filas cuyo valor de la variable `eye_color` esté **dentro de un conjunto de candidatos**.

```r
starwars %>% # con ojos marrones, azules o rojos
  filter(eye_color %in% c("brown", "blue", "red"))
```

```
> # A tibble: 45 × 14
>    name    height  mass hair_color  skin_color eye_color birth_year sex   gender
>    <chr>    <int> <dbl> <chr>       <chr>      <chr>          <dbl> <chr> <chr> 
>  1 Luke S…    172    77 blond       fair       blue            19   male  mascu…
>  2 R2-D2       96    32 <NA>        white, bl… red             33   none  mascu…
>  3 Leia O…    150    49 brown       light      brown           19   fema… femin…
>  4 Owen L…    178   120 brown, grey light      blue            52   male  mascu…
>  5 Beru W…    165    75 brown       light      blue            47   fema… femin…
>  6 R5-D4       97    32 <NA>        white, red red             NA   none  mascu…
>  7 Biggs …    183    84 black       light      brown           24   male  mascu…
>  8 Anakin…    188    84 blond       fair       blue            41.9 male  mascu…
>  9 Wilhuf…    180    NA auburn, gr… fair       blue            64   male  mascu…
> 10 Chewba…    228   112 brown       unknown    blue           200   male  mascu…
> # … with 35 more rows, and 5 more variables: homeworld <chr>, species <chr>,
> #   films <list>, vehicles <list>, starships <list>
```
…
---

# Operaciones con filas: reordenar

Otra operación habitual en las filas es **ordenarlas en función del valor de alguna de las variables** con `arrange()`,  pasándole como argumento el nombre de la variable que usaremos para la ordenación. Por ejemplo, vamos a ordenar nuestra **tabla de personajes por altura, de bajitos a altos**.

```r
# Con arrange ordenamos en base al orden de la variable que introduzcamos
*starwars %>% arrange(height)
```

```
> # A tibble: 87 × 14
>    name     height  mass hair_color skin_color eye_color birth_year sex   gender
>    <chr>     <int> <dbl> <chr>      <chr>      <chr>          <dbl> <chr> <chr> 
>  1 Yoda         66    17 white      green      brown            896 male  mascu…
>  2 Ratts T…     79    15 none       grey, blue unknown           NA male  mascu…
>  3 Wicket …     88    20 brown      brown      brown              8 male  mascu…
>  4 Dud Bolt     94    45 none       blue, grey yellow            NA male  mascu…
>  5 R2-D2        96    32 <NA>       white, bl… red               33 none  mascu…
>  6 R4-P17       96    NA none       silver, r… red, blue         NA none  femin…
>  7 R5-D4        97    32 <NA>       white, red red               NA none  mascu…
>  8 Sebulba     112    40 none       grey, red  orange            NA male  mascu…
>  9 Gasgano     122    NA none       white, bl… black             NA male  mascu…
> 10 Watto       137    NA black      blue, grey yellow            NA male  mascu…
> # … with 77 more rows, and 5 more variables: homeworld <chr>, species <chr>,
> #   films <list>, vehicles <list>, starships <list>
```

---

# Operaciones con filas: reordenar

Por defecto la ordenación es de menor a mayor pero podemos invertirlo usando `desc()`.

```r
# Por defecto lo hace ascendente pero podemos cambiarlo
starwars %>% arrange(desc(height))
```

```
> # A tibble: 87 × 14
>    name    height  mass hair_color skin_color  eye_color birth_year sex   gender
>    <chr>    <int> <dbl> <chr>      <chr>       <chr>          <dbl> <chr> <chr> 
>  1 Yarael…    264    NA none       white       yellow          NA   male  mascu…
>  2 Tarfful    234   136 brown      brown       blue            NA   male  mascu…
>  3 Lama Su    229    88 none       grey        black           NA   male  mascu…
>  4 Chewba…    228   112 brown      unknown     blue           200   male  mascu…
>  5 Roos T…    224    82 none       grey        orange          NA   male  mascu…
>  6 Grievo…    216   159 none       brown, whi… green, y…       NA   male  mascu…
>  7 Taun We    213    NA none       grey        black           NA   fema… femin…
>  8 Rugor …    206    NA none       green       orange          NA   male  mascu…
>  9 Tion M…    206    80 none       grey        black           NA   male  mascu…
> 10 Darth …    202   136 none       white       yellow          41.9 male  mascu…
> # … with 77 more rows, and 5 more variables: homeworld <chr>, species <chr>,
> #   films <list>, vehicles <list>, starships <list>
```

---

# Operaciones con filas: reordenar

La ordenación también puede **realizarse en base al valor de dos o más variables**: ordenará las filas en base a la primera, en caso de empate usará la segunda, en caso de empate la tercera, y así sucesivamente. Vamos a ordenar los personajes por altura y, luego, por peso.

```r
# Un dato NA va siempre al final
starwars %>% arrange(height, desc(mass))
```

```
> # A tibble: 87 × 14
>    name     height  mass hair_color skin_color eye_color birth_year sex   gender
>    <chr>     <int> <dbl> <chr>      <chr>      <chr>          <dbl> <chr> <chr> 
>  1 Yoda         66    17 white      green      brown            896 male  mascu…
>  2 Ratts T…     79    15 none       grey, blue unknown           NA male  mascu…
>  3 Wicket …     88    20 brown      brown      brown              8 male  mascu…
>  4 Dud Bolt     94    45 none       blue, grey yellow            NA male  mascu…
>  5 R2-D2        96    32 <NA>       white, bl… red               33 none  mascu…
>  6 R4-P17       96    NA none       silver, r… red, blue         NA none  femin…
>  7 R5-D4        97    32 <NA>       white, red red               NA none  mascu…
>  8 Sebulba     112    40 none       grey, red  orange            NA male  mascu…
>  9 Gasgano     122    NA none       white, bl… black             NA male  mascu…
> 10 Watto       137    NA black      blue, grey yellow            NA male  mascu…
> # … with 77 more rows, and 5 more variables: homeworld <chr>, species <chr>,
> #   films <list>, vehicles <list>, starships <list>
```
…
---

# Operaciones con filas: eliminar

La misma lógica que hemos usado para seleccionar filas podemos usarla para **eliminar filas** con `slice()`, simplemente **negando** la condición de filtrado. Por ejemplo, vamos a eliminar las 5 primeras filas.

```r
# Eliminamos por índices
starwars %>% slice(-(1:5)) # eliminamos las 5 primeras filas
```

```
> # A tibble: 82 × 14
>    name    height  mass hair_color  skin_color eye_color birth_year sex   gender
>    <chr>    <int> <dbl> <chr>       <chr>      <chr>          <dbl> <chr> <chr> 
>  1 Owen L…    178   120 brown, grey light      blue            52   male  mascu…
>  2 Beru W…    165    75 brown       light      blue            47   fema… femin…
>  3 R5-D4       97    32 <NA>        white, red red             NA   none  mascu…
>  4 Biggs …    183    84 black       light      brown           24   male  mascu…
>  5 Obi-Wa…    182    77 auburn, wh… fair       blue-gray       57   male  mascu…
>  6 Anakin…    188    84 blond       fair       blue            41.9 male  mascu…
>  7 Wilhuf…    180    NA auburn, gr… fair       blue            64   male  mascu…
>  8 Chewba…    228   112 brown       unknown    blue           200   male  mascu…
>  9 Han So…    180    80 brown       fair       brown           29   male  mascu…
> 10 Greedo     173    74 <NA>        green      black           44   male  mascu…
> # … with 72 more rows, and 5 more variables: homeworld <chr>, species <chr>,
> #   films <list>, vehicles <list>, starships <list>
```

---

# Operaciones con filas: duplicados

Otra opción es **eliminar filas duplicadas** con `distinct()`, pasándole como argumentos el nombre de las variables que usaremos para quitar duplicados, por ejemplo, aquellos personajes con igual par de color de pelo y ojos.

```r
# Eliminamos registros con igual par (color_pelo, color_ojos)
starwars %>%
  distinct(hair_color, eye_color)
```

```
> # A tibble: 35 × 2
>    hair_color    eye_color
>    <chr>         <chr>    
>  1 blond         blue     
>  2 <NA>          yellow   
>  3 <NA>          red      
>  4 none          yellow   
>  5 brown         brown    
>  6 brown, grey   blue     
>  7 brown         blue     
>  8 black         brown    
>  9 auburn, white blue-gray
> 10 auburn, grey  blue     
> # … with 25 more rows
```
…
